{"event":"details","time":1615265134,"u":"18","run":"0.29","mem":"46.66","data":"----- Initiating master send function for BackupBuddy v8.0.1.11 for basename file: `backup-www_oinkdigital_com_au-2021_03_09-02_30am-db-dqw8vjiyh9.zip`. Post-send deletion: 1"}
{"event":"details","time":1615265134,"u":"18","run":"0.29","mem":"46.66","data":"Created fileoptions lock file `send-erw8vseaq7iz.txt.lock` with ID: 6046fd6e2c27d1.84669406."}
{"event":"details","time":1615265134,"u":"18","run":"0.29","mem":"46.66","data":"Fileoptions load using 0 MB of memory."}
{"event":"details","time":1615265134,"u":"18","run":"0.29","mem":"46.67","data":"Fileoptions `send-erw8vseaq7iz.txt` saved. 1788 bytes written."}
{"event":"details","time":1615265134,"u":"18","run":"0.29","mem":"46.66","data":"Initializing destination."}
{"event":"details","time":1615265134,"u":"18","run":"0.29","mem":"46.66","data":"Loading destination init file `\/home2\/ab9190\/public_html\/wp-content\/plugins\/backupbuddy\/destinations\/stash2\/init.php`."}
{"event":"details","time":1615265134,"u":"18","run":"0.30","mem":"46.72","data":"Destination init loaded."}
{"event":"details","time":1615265134,"u":"18","run":"0.30","mem":"46.72","data":"Initialized `stash2` destination."}
{"event":"details","time":1615265134,"u":"18","run":"0.30","mem":"46.72","data":"Applying destination-specific defaults."}
{"event":"details","time":1615265134,"u":"18","run":"0.30","mem":"46.72","data":"Applying global destination defaults."}
{"event":"details","time":1615265134,"u":"18","run":"0.30","mem":"46.72","data":"Calling destination-specific send method `pb_backupbuddy_destination_stash2::send`."}
{"event":"details","time":1615265134,"u":"18","run":"0.30","mem":"46.72","data":"Starting Stash2 send()."}
{"event":"details","time":1615265134,"u":"18","run":"0.30","mem":"46.86","data":"Detecting backup type if possible."}
{"event":"details","time":1615265134,"u":"18","run":"0.30","mem":"46.86","data":"Detected backup type as `db` via filename."}
{"event":"error","time":1615265134,"u":"36","run":"0.47","mem":"47.18","data":"Error #389283: Error #39752893b. Server reported an error performing action `upload` with additional params: `Array\n(\n    [filename] => \/oinkdigital.com.au\/db\/backup-www_oinkdigital_com_au-2021_03_09-02_30am-db-dqw8vjiyh9.zip\n    [size] => 3040629\n    [timezone] => \n)\n`. Body Details: `Array\n(\n    [type] => syntax\n    [name] => request\n    [message] => You must upgrade your version of BackupBuddy.\n)\n`. Response Details: `Array\n(\n    [code] => 200\n    [message] => OK\n)\n`."}
{"event":"error","time":1615265134,"u":"36","run":"0.47","mem":"47.16","data":"Error #389283: Error #832973: Unable to initiate Stash (v2) upload. Details: `You must upgrade your version of BackupBuddy.`."}
{"event":"error","time":1615265134,"u":"36","run":"0.47","mem":"47.16","data":"Error #8239823: One or more errors were encountered attempting to send. See log above for more information such as specific error numbers or the following details. Details: ` Details: Error #39752893b. Server reported an error performing action `upload` with additional params: `Array\n(\n    [filename] => \/oinkdigital.com.au\/db\/backup-www_oinkdigital_com_au-2021_03_09-02_30am-db-dqw8vjiyh9.zip\n    [size] => 3040629\n    [timezone] => \n)\n`. Body Details: `Array\n(\n    [type] => syntax\n    [name] => request\n    [message] => You must upgrade your version of BackupBuddy.\n)\n`. Response Details: `Array\n(\n    [code] => 200\n    [message] => OK\n)\n`.; Error #832973: Unable to initiate Stash (v2) upload. Details: `You must upgrade your version of BackupBuddy.`.`."}
{"event":"details","time":1615265134,"u":"36","run":"0.47","mem":"47.16","data":"Looking for remote send log file to send in error email: `\/home2\/ab9190\/public_html\/wp-content\/uploads\/pb_backupbuddy\/status-remote_send-erw8vseaq7iz_0nr7etk5pbuba2y.txt`."}
{"event":"details","time":1615265134,"u":"36","run":"0.47","mem":"47.16","data":"Remote send log file found. Attaching to error email."}
{"event":"details","time":1615265134,"u":"36","run":"0.48","mem":"47.21","data":"Sending email error notification with subject `BackupBuddy Server Error - https:\/\/www.oinkdigital.com.au` to recipient(s): `hi@oinkdigital.com.au`."}
{"event":"details","time":1615265136,"u":"83","run":"2.94","mem":"68.19","data":"Fileoptions instance #45."}
{"event":"details","time":1615265136,"u":"83","run":"2.95","mem":"68.19","data":"Created fileoptions lock file `send-erw8vseaq7iz.txt.lock` with ID: 6046fd70cb83f9.72994506."}
{"event":"details","time":1615265136,"u":"83","run":"2.95","mem":"68.19","data":"Fileoptions load using 0 MB of memory."}
{"event":"details","time":1615265136,"u":"83","run":"2.95","mem":"68.20","data":"Fileoptions `send-erw8vseaq7iz.txt` saved. 2684 bytes written."}
{"event":"details","time":1615265136,"u":"83","run":"2.95","mem":"68.19","data":"Completed send function. Failure. Post-send deletion will be skipped if enabled."}
{"event":"details","time":1615265136,"u":"83","run":"2.95","mem":"68.19","data":"About to load fileoptions data."}
{"event":"details","time":1615265136,"u":"83","run":"2.95","mem":"68.19","data":"Fileoptions instance #16."}
{"event":"details","time":1615265136,"u":"83","run":"2.95","mem":"68.19","data":"Created fileoptions lock file `send-erw8vseaq7iz.txt.lock` with ID: 6046fd70cbdaa6.69350308."}
{"event":"details","time":1615265136,"u":"83","run":"2.95","mem":"68.19","data":"Fileoptions load using 0 MB of memory."}
{"event":"details","time":1615265136,"u":"83","run":"2.95","mem":"68.19","data":"Fileoptions data loaded."}
{"event":"details","time":1615265136,"u":"83","run":"2.95","mem":"68.19","data":"Ending send() function pass."}
