{"event":"details","time":1614921146,"u":"74","run":"0.29","mem":"46.66","data":"----- Initiating master send function for BackupBuddy v8.0.1.11 for basename file: `backup-www_oinkdigital_com_au-2021_03_05-04_40am-db-rhkienao46.zip`. Post-send deletion: 1"}
{"event":"details","time":1614921146,"u":"74","run":"0.29","mem":"46.66","data":"Created fileoptions lock file `send-p2iqgxbxhqra.txt.lock` with ID: 6041bdbab5b3e0.17599777."}
{"event":"details","time":1614921146,"u":"74","run":"0.29","mem":"46.66","data":"Fileoptions load using 0 MB of memory."}
{"event":"details","time":1614921146,"u":"74","run":"0.29","mem":"46.67","data":"Fileoptions `send-p2iqgxbxhqra.txt` saved. 1788 bytes written."}
{"event":"details","time":1614921146,"u":"74","run":"0.29","mem":"46.66","data":"Initializing destination."}
{"event":"details","time":1614921146,"u":"74","run":"0.29","mem":"46.66","data":"Loading destination init file `\/home2\/ab9190\/public_html\/wp-content\/plugins\/backupbuddy\/destinations\/stash2\/init.php`."}
{"event":"details","time":1614921146,"u":"74","run":"0.29","mem":"46.72","data":"Destination init loaded."}
{"event":"details","time":1614921146,"u":"74","run":"0.29","mem":"46.72","data":"Initialized `stash2` destination."}
{"event":"details","time":1614921146,"u":"74","run":"0.29","mem":"46.72","data":"Applying destination-specific defaults."}
{"event":"details","time":1614921146,"u":"74","run":"0.29","mem":"46.72","data":"Applying global destination defaults."}
{"event":"details","time":1614921146,"u":"74","run":"0.29","mem":"46.72","data":"Calling destination-specific send method `pb_backupbuddy_destination_stash2::send`."}
{"event":"details","time":1614921146,"u":"74","run":"0.29","mem":"46.72","data":"Starting Stash2 send()."}
{"event":"details","time":1614921146,"u":"74","run":"0.30","mem":"46.86","data":"Detecting backup type if possible."}
{"event":"details","time":1614921146,"u":"74","run":"0.30","mem":"46.86","data":"Detected backup type as `db` via filename."}
{"event":"error","time":1614921146,"u":"88","run":"0.43","mem":"47.18","data":"Error #389283: Error #39752893b. Server reported an error performing action `upload` with additional params: `Array\n(\n    [filename] => \/oinkdigital.com.au\/db\/backup-www_oinkdigital_com_au-2021_03_05-04_40am-db-rhkienao46.zip\n    [size] => 3038530\n    [timezone] => \n)\n`. Body Details: `Array\n(\n    [type] => syntax\n    [name] => request\n    [message] => You must upgrade your version of BackupBuddy.\n)\n`. Response Details: `Array\n(\n    [code] => 200\n    [message] => OK\n)\n`."}
{"event":"error","time":1614921146,"u":"88","run":"0.43","mem":"47.16","data":"Error #389283: Error #832973: Unable to initiate Stash (v2) upload. Details: `You must upgrade your version of BackupBuddy.`."}
{"event":"error","time":1614921146,"u":"88","run":"0.43","mem":"47.16","data":"Error #8239823: One or more errors were encountered attempting to send. See log above for more information such as specific error numbers or the following details. Details: ` Details: Error #39752893b. Server reported an error performing action `upload` with additional params: `Array\n(\n    [filename] => \/oinkdigital.com.au\/db\/backup-www_oinkdigital_com_au-2021_03_05-04_40am-db-rhkienao46.zip\n    [size] => 3038530\n    [timezone] => \n)\n`. Body Details: `Array\n(\n    [type] => syntax\n    [name] => request\n    [message] => You must upgrade your version of BackupBuddy.\n)\n`. Response Details: `Array\n(\n    [code] => 200\n    [message] => OK\n)\n`.; Error #832973: Unable to initiate Stash (v2) upload. Details: `You must upgrade your version of BackupBuddy.`.`."}
{"event":"details","time":1614921146,"u":"88","run":"0.43","mem":"47.16","data":"Looking for remote send log file to send in error email: `\/home2\/ab9190\/public_html\/wp-content\/uploads\/pb_backupbuddy\/status-remote_send-p2iqgxbxhqra_0nr7etk5pbuba2y.txt`."}
{"event":"details","time":1614921146,"u":"88","run":"0.43","mem":"47.16","data":"Remote send log file found. Attaching to error email."}
{"event":"details","time":1614921146,"u":"88","run":"0.44","mem":"47.21","data":"Sending email error notification with subject `BackupBuddy Server Error - https:\/\/www.oinkdigital.com.au` to recipient(s): `hi@oinkdigital.com.au`."}
{"event":"details","time":1614921149,"u":"11","run":"2.67","mem":"68.36","data":"Fileoptions instance #45."}
{"event":"details","time":1614921149,"u":"11","run":"2.67","mem":"68.36","data":"Created fileoptions lock file `send-p2iqgxbxhqra.txt.lock` with ID: 6041bdbd1cba15.34616712."}
{"event":"details","time":1614921149,"u":"11","run":"2.67","mem":"68.36","data":"Fileoptions load using 0 MB of memory."}
{"event":"details","time":1614921149,"u":"11","run":"2.67","mem":"68.37","data":"Fileoptions `send-p2iqgxbxhqra.txt` saved. 2684 bytes written."}
{"event":"details","time":1614921149,"u":"11","run":"2.67","mem":"68.36","data":"Completed send function. Failure. Post-send deletion will be skipped if enabled."}
{"event":"details","time":1614921149,"u":"11","run":"2.67","mem":"68.36","data":"About to load fileoptions data."}
{"event":"details","time":1614921149,"u":"11","run":"2.67","mem":"68.36","data":"Fileoptions instance #16."}
{"event":"details","time":1614921149,"u":"11","run":"2.67","mem":"68.36","data":"Created fileoptions lock file `send-p2iqgxbxhqra.txt.lock` with ID: 6041bdbd1ce761.56443938."}
{"event":"details","time":1614921149,"u":"11","run":"2.67","mem":"68.36","data":"Fileoptions load using 0 MB of memory."}
{"event":"details","time":1614921149,"u":"11","run":"2.67","mem":"68.36","data":"Fileoptions data loaded."}
{"event":"details","time":1614921149,"u":"11","run":"2.67","mem":"68.36","data":"Ending send() function pass."}
