{"event":"details","time":1616734453,"u":"30","run":"0.28","mem":"47.03","data":"----- Initiating master send function for BackupBuddy v8.0.1.11 for basename file: `backup-www_oinkdigital_com_au-2021_03_26-03_35am-db-9jys3qs0xc.zip`. Post-send deletion: 1"}
{"event":"details","time":1616734453,"u":"30","run":"0.28","mem":"47.04","data":"Created fileoptions lock file `send-xybt3vm50f40.txt.lock` with ID: 605d68f549d863.60763521."}
{"event":"details","time":1616734453,"u":"30","run":"0.28","mem":"47.04","data":"Fileoptions load using 0 MB of memory."}
{"event":"details","time":1616734453,"u":"30","run":"0.28","mem":"47.04","data":"Fileoptions `send-xybt3vm50f40.txt` saved. 1792 bytes written."}
{"event":"details","time":1616734453,"u":"30","run":"0.28","mem":"47.03","data":"Initializing destination."}
{"event":"details","time":1616734453,"u":"30","run":"0.28","mem":"47.04","data":"Loading destination init file `\/home2\/ab9190\/public_html\/wp-content\/plugins\/backupbuddy\/destinations\/stash2\/init.php`."}
{"event":"details","time":1616734453,"u":"30","run":"0.28","mem":"47.09","data":"Destination init loaded."}
{"event":"details","time":1616734453,"u":"30","run":"0.28","mem":"47.09","data":"Initialized `stash2` destination."}
{"event":"details","time":1616734453,"u":"30","run":"0.28","mem":"47.09","data":"Applying destination-specific defaults."}
{"event":"details","time":1616734453,"u":"30","run":"0.28","mem":"47.10","data":"Applying global destination defaults."}
{"event":"details","time":1616734453,"u":"30","run":"0.28","mem":"47.10","data":"Calling destination-specific send method `pb_backupbuddy_destination_stash2::send`."}
{"event":"details","time":1616734453,"u":"30","run":"0.28","mem":"47.10","data":"Starting Stash2 send()."}
{"event":"details","time":1616734453,"u":"30","run":"0.29","mem":"47.23","data":"Detecting backup type if possible."}
{"event":"details","time":1616734453,"u":"30","run":"0.29","mem":"47.23","data":"Detected backup type as `db` via filename."}
{"event":"error","time":1616734453,"u":"55","run":"0.53","mem":"47.55","data":"Error #389283: Error #39752893b. Server reported an error performing action `upload` with additional params: `Array\n(\n    [filename] => \/oinkdigital.com.au\/db\/backup-www_oinkdigital_com_au-2021_03_26-03_35am-db-9jys3qs0xc.zip\n    [size] => 2785431\n    [timezone] => \n)\n`. Body Details: `Array\n(\n    [type] => syntax\n    [name] => request\n    [message] => You must upgrade your version of BackupBuddy.\n)\n`. Response Details: `Array\n(\n    [code] => 200\n    [message] => OK\n)\n`."}
{"event":"error","time":1616734453,"u":"55","run":"0.53","mem":"47.54","data":"Error #389283: Error #832973: Unable to initiate Stash (v2) upload. Details: `You must upgrade your version of BackupBuddy.`."}
{"event":"error","time":1616734453,"u":"55","run":"0.53","mem":"47.54","data":"Error #8239823: One or more errors were encountered attempting to send. See log above for more information such as specific error numbers or the following details. Details: ` Details: Error #39752893b. Server reported an error performing action `upload` with additional params: `Array\n(\n    [filename] => \/oinkdigital.com.au\/db\/backup-www_oinkdigital_com_au-2021_03_26-03_35am-db-9jys3qs0xc.zip\n    [size] => 2785431\n    [timezone] => \n)\n`. Body Details: `Array\n(\n    [type] => syntax\n    [name] => request\n    [message] => You must upgrade your version of BackupBuddy.\n)\n`. Response Details: `Array\n(\n    [code] => 200\n    [message] => OK\n)\n`.; Error #832973: Unable to initiate Stash (v2) upload. Details: `You must upgrade your version of BackupBuddy.`.`."}
{"event":"details","time":1616734453,"u":"55","run":"0.53","mem":"47.54","data":"Looking for remote send log file to send in error email: `\/home2\/ab9190\/public_html\/wp-content\/uploads\/pb_backupbuddy\/status-remote_send-xybt3vm50f40_0nr7etk5pbuba2y.txt`."}
{"event":"details","time":1616734453,"u":"55","run":"0.53","mem":"47.54","data":"Remote send log file found. Attaching to error email."}
{"event":"details","time":1616734453,"u":"55","run":"0.53","mem":"47.58","data":"Sending email error notification with subject `BackupBuddy Server Error - https:\/\/www.oinkdigital.com.au` to recipient(s): `hi@oinkdigital.com.au`."}
{"event":"details","time":1616734455,"u":"19","run":"2.18","mem":"66.63","data":"Fileoptions instance #45."}
{"event":"details","time":1616734455,"u":"19","run":"2.18","mem":"66.63","data":"Created fileoptions lock file `send-xybt3vm50f40.txt.lock` with ID: 605d68f7303e43.59276813."}
{"event":"details","time":1616734455,"u":"19","run":"2.18","mem":"66.63","data":"Fileoptions load using 0 MB of memory."}
{"event":"details","time":1616734455,"u":"19","run":"2.18","mem":"66.64","data":"Fileoptions `send-xybt3vm50f40.txt` saved. 2688 bytes written."}
{"event":"details","time":1616734455,"u":"19","run":"2.18","mem":"66.63","data":"Completed send function. Failure. Post-send deletion will be skipped if enabled."}
{"event":"details","time":1616734455,"u":"19","run":"2.18","mem":"66.63","data":"About to load fileoptions data."}
{"event":"details","time":1616734455,"u":"19","run":"2.18","mem":"66.63","data":"Fileoptions instance #16."}
{"event":"details","time":1616734455,"u":"19","run":"2.18","mem":"66.63","data":"Created fileoptions lock file `send-xybt3vm50f40.txt.lock` with ID: 605d68f7307298.84599079."}
{"event":"details","time":1616734455,"u":"19","run":"2.18","mem":"66.64","data":"Fileoptions load using 0 MB of memory."}
{"event":"details","time":1616734455,"u":"19","run":"2.18","mem":"66.64","data":"Fileoptions data loaded."}
{"event":"details","time":1616734455,"u":"19","run":"2.18","mem":"66.63","data":"Ending send() function pass."}
