{"event":"details","time":1617677405,"u":"41","run":"0.32","mem":"47.03","data":"----- Initiating master send function for BackupBuddy v8.0.1.11 for basename file: `backup-www_oinkdigital_com_au-2021_04_06-02_29am-db-4z9fbenzes.zip`. Post-send deletion: 1"}
{"event":"details","time":1617677405,"u":"41","run":"0.32","mem":"47.04","data":"Created fileoptions lock file `send-to7s149ivxoe.txt.lock` with ID: 606bcc5d6596d2.56234626."}
{"event":"details","time":1617677405,"u":"41","run":"0.32","mem":"47.04","data":"Fileoptions load using 0 MB of memory."}
{"event":"details","time":1617677405,"u":"41","run":"0.32","mem":"47.04","data":"Fileoptions `send-to7s149ivxoe.txt` saved. 1792 bytes written."}
{"event":"details","time":1617677405,"u":"41","run":"0.32","mem":"47.03","data":"Initializing destination."}
{"event":"details","time":1617677405,"u":"41","run":"0.32","mem":"47.04","data":"Loading destination init file `\/home2\/ab9190\/public_html\/wp-content\/plugins\/backupbuddy\/destinations\/stash2\/init.php`."}
{"event":"details","time":1617677405,"u":"41","run":"0.32","mem":"47.09","data":"Destination init loaded."}
{"event":"details","time":1617677405,"u":"41","run":"0.32","mem":"47.09","data":"Initialized `stash2` destination."}
{"event":"details","time":1617677405,"u":"41","run":"0.32","mem":"47.09","data":"Applying destination-specific defaults."}
{"event":"details","time":1617677405,"u":"41","run":"0.32","mem":"47.10","data":"Applying global destination defaults."}
{"event":"details","time":1617677405,"u":"41","run":"0.32","mem":"47.10","data":"Calling destination-specific send method `pb_backupbuddy_destination_stash2::send`."}
{"event":"details","time":1617677405,"u":"41","run":"0.32","mem":"47.10","data":"Starting Stash2 send()."}
{"event":"details","time":1617677405,"u":"42","run":"0.32","mem":"47.23","data":"Detecting backup type if possible."}
{"event":"details","time":1617677405,"u":"42","run":"0.32","mem":"47.23","data":"Detected backup type as `db` via filename."}
{"event":"error","time":1617677405,"u":"65","run":"0.55","mem":"47.55","data":"Error #389283: Error #39752893b. Server reported an error performing action `upload` with additional params: `Array\n(\n    [filename] => \/oinkdigital.com.au\/db\/backup-www_oinkdigital_com_au-2021_04_06-02_29am-db-4z9fbenzes.zip\n    [size] => 2354583\n    [timezone] => \n)\n`. Body Details: `Array\n(\n    [type] => syntax\n    [name] => request\n    [message] => You must upgrade your version of BackupBuddy.\n)\n`. Response Details: `Array\n(\n    [code] => 200\n    [message] => OK\n)\n`."}
{"event":"error","time":1617677405,"u":"65","run":"0.55","mem":"47.54","data":"Error #389283: Error #832973: Unable to initiate Stash (v2) upload. Details: `You must upgrade your version of BackupBuddy.`."}
{"event":"error","time":1617677405,"u":"65","run":"0.55","mem":"47.54","data":"Error #8239823: One or more errors were encountered attempting to send. See log above for more information such as specific error numbers or the following details. Details: ` Details: Error #39752893b. Server reported an error performing action `upload` with additional params: `Array\n(\n    [filename] => \/oinkdigital.com.au\/db\/backup-www_oinkdigital_com_au-2021_04_06-02_29am-db-4z9fbenzes.zip\n    [size] => 2354583\n    [timezone] => \n)\n`. Body Details: `Array\n(\n    [type] => syntax\n    [name] => request\n    [message] => You must upgrade your version of BackupBuddy.\n)\n`. Response Details: `Array\n(\n    [code] => 200\n    [message] => OK\n)\n`.; Error #832973: Unable to initiate Stash (v2) upload. Details: `You must upgrade your version of BackupBuddy.`.`."}
{"event":"details","time":1617677405,"u":"65","run":"0.55","mem":"47.54","data":"Looking for remote send log file to send in error email: `\/home2\/ab9190\/public_html\/wp-content\/uploads\/pb_backupbuddy\/status-remote_send-to7s149ivxoe_0nr7etk5pbuba2y.txt`."}
{"event":"details","time":1617677405,"u":"65","run":"0.55","mem":"47.54","data":"Remote send log file found. Attaching to error email."}
{"event":"details","time":1617677405,"u":"65","run":"0.56","mem":"47.58","data":"Sending email error notification with subject `BackupBuddy Server Error - https:\/\/www.oinkdigital.com.au` to recipient(s): `hi@oinkdigital.com.au`."}
{"event":"details","time":1617677407,"u":"40","run":"2.30","mem":"64.60","data":"Fileoptions instance #45."}
{"event":"details","time":1617677407,"u":"40","run":"2.30","mem":"64.60","data":"Created fileoptions lock file `send-to7s149ivxoe.txt.lock` with ID: 606bcc5f627ba1.73728406."}
{"event":"details","time":1617677407,"u":"40","run":"2.30","mem":"64.60","data":"Fileoptions load using 0 MB of memory."}
{"event":"details","time":1617677407,"u":"40","run":"2.30","mem":"64.61","data":"Fileoptions `send-to7s149ivxoe.txt` saved. 2684 bytes written."}
{"event":"details","time":1617677407,"u":"40","run":"2.30","mem":"64.60","data":"Completed send function. Failure. Post-send deletion will be skipped if enabled."}
{"event":"details","time":1617677407,"u":"40","run":"2.30","mem":"64.60","data":"About to load fileoptions data."}
{"event":"details","time":1617677407,"u":"40","run":"2.30","mem":"64.60","data":"Fileoptions instance #16."}
{"event":"details","time":1617677407,"u":"40","run":"2.30","mem":"64.60","data":"Created fileoptions lock file `send-to7s149ivxoe.txt.lock` with ID: 606bcc5f62a5f1.92685090."}
{"event":"details","time":1617677407,"u":"40","run":"2.30","mem":"64.60","data":"Fileoptions load using 0 MB of memory."}
{"event":"details","time":1617677407,"u":"40","run":"2.30","mem":"64.60","data":"Fileoptions data loaded."}
{"event":"details","time":1617677407,"u":"40","run":"2.30","mem":"64.60","data":"Ending send() function pass."}
